{
	"appKey": "echidna.arcjs_app_dipak.1.0.0.Release",
	"sharedSecret": "f500edc5cec4431c8cb81eb86a56aec5",
	"tenant": 15986,
	"site": 23651,
    "master-catalog": "1",
	"baseUrl": "https://home.mozu.com",
	"basePciUrl" : "https://payments-sb.mozu.com/",
	"developerAccountId": "322534d716134b8ab5bb7909e968c89c",
	"developerAccount": {
        "emailAddress": "asaithambi.p@echidnainc.com",
        "password": "Welcome@2"
	},
    "dataview-mode": "LIVE",
    "adminUser":{
        "emailAddress": "asaithambi.p@echidnainc.com",
        "password": "Welcome@2"
    }
}
